marte-kernel-tasks_operations-application_scheduler.ads:214:07: warning: "POSIX_Appsched_Actions_Addaccept.T" involves a tagged type which does not correspond to any C type
marte-kernel-tasks_operations-application_scheduler.ads:221:07: warning: "POSIX_Appsched_Actions_Addreject.T" involves a tagged type which does not correspond to any C type
marte-kernel-tasks_operations-application_scheduler.ads:228:07: warning: "POSIX_Appsched_Actions_Addactivate.T" involves a tagged type which does not correspond to any C type
marte-kernel-tasks_operations-application_scheduler.ads:235:07: warning: "POSIX_Appsched_Actions_Addactivateurg.T" involves a tagged type which does not correspond to any C type
marte-kernel-tasks_operations-application_scheduler.ads:243:07: warning: "POSIX_Appsched_Actions_Addsuspend.T" involves a tagged type which does not correspond to any C type
marte-kernel-tasks_operations-application_scheduler.ads:250:09: warning: "POSIX_Appsched_Actions_Addtimedactivation.T" involves a tagged type which does not correspond to any C type
marte-kernel-tasks_operations-application_scheduler.ads:259:09: warning: "POSIX_Appsched_Actions_Addthreadnotification.T" involves a tagged type which does not correspond to any C type
marte-kernel-tasks_operations-application_scheduler.ads:281:07: warning: "POSIX_Appsched_Actions_Addlock_Mutex.T" involves a tagged type which does not correspond to any C type
marte-kernel-tasks_operations-application_scheduler.ads:339:07: warning: "Pthread_Getappschedulerstate.T" involves a tagged type which does not correspond to any C type
marte-kernel-tasks_operations-application_scheduler.ads:347:38: warning: "Pthread_Setappscheduler.T" involves a tagged type which does not correspond to any C type
marte-kernel-tasks_operations-application_scheduler.ads:348:38: warning: "Pthread_Setappscheduler.AppScheduler" involves a tagged type which does not correspond to any C type
marte-kernel-tasks_operations-application_scheduler.ads:352:38: warning: "Pthread_Getappscheduler.T" involves a tagged type which does not correspond to any C type
marte-kernel-tasks_operations-application_scheduler.ads:361:07: warning: "Pthread_Setappschedparam.T" involves a tagged type which does not correspond to any C type
marte-kernel-tasks_operations-application_scheduler.ads:368:07: warning: "Pthread_Getappschedparam.T" involves a tagged type which does not correspond to any C type
